
32
33
20
3A
05
20
3C
32
05
20
CD
20
0A
CD
F7
08
2A
29
20
EB
CD
AD
06
3A
30
20
4F
16
F0
3A
05
20
5F
3A
2B
20
BB
DA
6C
08
3E
26
BB
DA
6C
08
7A
A6
C2
E6
08
E5
C5
01
20
00
09
7E
A7
C2
62
08
01
C0
FF
09
7E
A7
C2
62
08
C1
E1
7A
B6
77
0D
CA
F7
08
CD
20
0A
3A
05
20
3C
32
05
20
0F
D2
67
08
2B
C3
1B
08
C1
E1
C3
E6
08
16
0F
C3
1D
08
3A
05
20
3D
32
05
20
CD
2A
0A
C3
EC
08
21
4B
22
7E
A7
C2
DF
07
3A
4C
22
FE
01
00
CA
B8
08
D2
CF
08
C3
A6
08
AF
32
3C
20
3A
36
20
A7
C2
81
08
DB
02
07
07
DA
CF
08
07
DA
B8
08
2A
12
20
EB
CD
AD
06
EB
2A
17
20
EB
06
0F
CD
C4
06
C9
3A
13
20
FE
E0
CA
C7
08
3C
32
13
20
C3
A6
08
3E
FF
32
4C
22
C3
A6
08
3A
13
20
FE
30
CA
DE
08
3D
32
13
20
C3
A6
08
3E
01
32
4C
22
C3
A6
08
7A
B6
77
32
1F
20
3E
01
32
28
20
3A
32
20
32
19
20
3A
05
20
87
87
2F
C6
01
C6
C8
32
29
20
C9
3A
03
20
3D
32
03
20
A7
C0
3E
05
32
03
20
CD
43
07
3A
04
20
3D
32
04
20
A7
CA
40
09
3A
10
20
3C
E6
01
32
10
20
07
07
07
07
2A
17
20
85
6F
EB
2A
12
20
EB
E5
CD
AD
06
D1
C3
B2
08
3A
36
20
A7
C2
59
09
CD
4E
07
3A
1B
20
3D
32
1B
20
F5
CD
1A
11
F1
CA
5F
09
CD
4E
07
C3
B9
05
C3
CF
05
3A
50
20
A7
C8
3A
36
20
A7
C0
2A
22
20
3A
26
20
85
27
6F
3A
27
20
8C
27
67
22
26
20
21
00
00
22
22
20
CD
AE
10
C9
3A
1F
20
A7
C8
3A
05
20
FE
25
DA
B5
09
3E
01
32
00
20
3E
0A
32
03
20
3E
16
32
04
20
21
10
0E
22
15
20
3E
01
32
10
20
32
23
20
C3
D2
09
32
2C
20
01
07
09
21
50
0E
3A
05
20
B8
DA
CE
09
23
04
04
04
04
0D
C2
C1
09
7E
32
22
20
AF
32
1F
20
C3
62
09
3A
28
20
A7
C8
3A
19
20
3D
32
19
20
C0
2A
29
20
EB
CD
AD
06
AF
3A
05
20
47
1F
CE
00
36
00
23
3D
C2
F5
09
32
28
20
32
02
20
CD
38
07
3A
2B
20
90
32
2B
20
3A
33
20
2F
C6
9B
47
3A
2E
20
80
27
32
2E
20
AF
32
2F
20
C9
3A
33
20
C6
01
27
32
33
20
C9
3A
33
20
C6
99
27
32
33
20
C9
3A
08
20
C3
4B
0A
21
37
20
35
C0
36
20
0F
DA
59
0A
21
39
20
36
FF
C9
3A
08
20
FE
38
DA
3A
0A
3E
01
32
38
20
C9
21
39
20
36
01
C9
21
00
00
22
24
20
22
26
20
22
45
20
3A
8A
0E
32
1A
20
32
1B
20
21
00
20
11
70
0E
1A
77
13
23
7D
FE
1A
CA
A1
0A
FE
24
CA
A8
0A
FE
34
CA
AF
0A
7D
FE
40
C2
7A
0A
3A
36
20
A7
CA
A0
0A
3E
24
32
1B
20
C9
2E
1C
1E
8C
C3
7A
0A
2E
28
1E
98
C3
7A
0A
2E
37
1E
A7
C3
7A
0A
3E
02
32
A0
21
2A
24
20
E5
C1
2A
26
20
7C
B8
CA
CE
0A
DA
D6
0A
C3
DB
0A
7D
B9
DA
D6
0A
C3
DB
0A
C5
D1
C3
DD
0A
E5
D1
3A
A0
21
3D
32
A0
21
CA
EF
0A
2A
34
20
42
4B
C3
C3
0A
7A
32
35
20
7B
32
34
20
C9
3A
4D
22
E6
01
C2
82
0B
CD
61
0C
3A
34
22
A7
CA
63
0B
3A
32
22
A7
CA
6E
0B
3A
4A
22
A7
C2
38
0B
21
3C
22
7E
A7
C2
7E
0B
3A
43
22
21
0A
20
86
E6
7F
32
3C
22
0F
DA
5A
0B
3A
5E
0C
2F
3C
32
4C
22
3A
36
22
A7
21
4A
22
7E
CA
49
0B
F6
01
77
C3
F7
0C
E6
FE
77
3A
41
22
E6
0F
32
36
22
C3
F7
0C
C3
45
0B
3A
5E
0C
32
4C
22
C3
38
0B
3A
2B
20
FE
30
D2
7C
0C
C3
18
0B
3A
40
22
E6
0F
32
32
22
3E
01
32
4B
22
C3
F7
0C
35
C3
F7
0C
21
3C
22
35
C2
97
0B
34
21
4D
22
7E
E6
FE
77
2B
AF
77
C3
00
0B
21
33
22
35
C2
AB
0B
36
08
CD
24
0C
21
32
22
35
F2
AB
0B
34
21
35
22
35
C2
BF
0B
36
07
CD
24
0C
21
34
22
35
F2
BF
0B
34
21
37
22
35
C2
D3
0B
36
08
CD
24
0C
21
36
22
35
F2
D3
0B
34
21
31
22
35
C2
E9
0B
36
07
CD
24
0C
21
30
22
35
C2
E9
0B
C3
14
0D
21
4F
22
34
C9
06
07
21
47
22
7E
17
2B
7E
17
77
05
C2
F5
0B
21
47
22
7E
17
77
C9
06
08
21
59
0C
11
47
22
7E
12
2B
1B
05
C2
0C
0C
3E
02
32
33
22
3E
05
32
35
22
3E
01
32
36
22
C9
3A
25
20
FE
01
DA
51
0C
35
FE
02
DA
51
0C
35
FE
04
DA
51
0C
35
FE
10
DA
51
0C
35
FE
20
DA
51
0C
35
FE
40
DA
51
0C
35
FE
80
DA
51
0C
35
C9
D4
4B
8C
AD
B5
19
5D
E6
02
05
01
00
01
00
02
3A
0A
20
21
13
20
96
21
3F
22
DA
73
0C
77
2B
AF
77
C9
2F
3C
77
2B
3E
FF
C3
71
0C
DB
01
E6
40
C2
90
0C
DB
01
E6
20
C2
9B
0C
CD
D0
0C
C3
E2
0C
3A
3E
22
E6
80
C2
DF
0C
C3
A6
0C
3A
3E
22
E6
80
C2
A6
0C
C3
DF
0C
3A
3F
22
A7
CA
EC
0C
3A
3E
22
E6
80
C2
CB
0C
3E
01
32
4C
22
21
4C
22
77
CD
D0
0C
3A
3F
22
BE
DA
EC
0C
C3
F7
0C
3E
FF
C3
B7
0C
21
3D
22
36
00
3A
4F
22
E6
07
86
32
3D
22
C9
CD
D0
0C
3A
3F
22
21
3D
22
96
D2
A6
0C
3A
41
22
E6
0F
32
34
22
C3
76
0B
21
49
22
36
0F
CD
24
0C
3A
4F
22
E6
0F
BE
00
DA
97
0B
21
01
20
7E
A7
C2
1F
0D
C3
97
0B
3A
44
22
E6
0F
32
30
22
C3
E9
0B
21
3F
22
7E
FE
09
D2
97
0B
2B
7E
A7
21
4C
22
36
01
C2
35
0D
36
FF
21
4D
22
7E
F6
01
77
3A
45
22
E6
0F
C6
0A
32
3C
22
C3
97
0B
06
85
05
0B
09
4D
55
40
03
06
0C
8F
2D
51
11
89
04
15
12
45
0D
C5
04
A3
40
A1
4E
20
08
E2
19
25
16
0D
19
26
06
04
05
A2
09
51
5B
C5
09
8D
05
25
05
40
44
9A
04
01
03
87
0B
71
21
14
00
25
03
A7
9D
03
09
C2
09
63
36
E1
02
C4
0D
80
90
03
84
0D
87
88
09
55
51
2E
00
82
10
98
C8
49
04
26
0C
07
8B
CC
08
60
13
07
09
89
82
39
43
5B
05
30
02
9D
80
8F
42
83
18
0C
4D
55
18
60
48
00
0E
93
8D
86
94
80
CA
70
18
8A
04
C9
00
52
60
3E
00
C8
4A
89
82
FF
80
48
1C
8A
AC
4D
02
88
04
41
0B
DC
0B
06
12
6D
A0
80
0E
4F
08
81
00
1A
CA
CD
12
1D
8A
62
C8
1C
08
25
01
45
4D
00
1F
07
0F
0E
15
3F
E5
3F
15
0E
0F
07
1F
00
4A
11
84
40
4B
0B
27
27
0F
5B
03
0A
A3
05
08
40
00
00
04
01
13
03
07
A3
0F
2F
03
2F
49
04
03
0C
08
00
C0
20
92
F4
C0
F4
F0
CD
E0
C0
C8
80
20
00
00
02
10
A0
C5
50
C0
DA
F0
E4
E4
D0
D2
02
21
88
15
01
02
03
04
05
06
07
01
00
11
E0
17
04
23
20
29
00
F8
E0
F0
70
A8
FC
A7
FC
A8
70
F0
E0
F8
00
82
00
00
00
00
00
00
00
00
00
30
30
00
00
00
00
00
00
00
C8
E0
00
00
0E
60
0E
00
05
05
05
00
00
00
00
00
00
00
00
00
00
00
00
C8
E0
00
00
06
00
00
04
03
08
00
00
00
00
00
00
00
25
09
2A
C8
08
1C
64
04
14
04
1C
00
00
00
E7
05
46
70
3F
40
00
02
8D
08
60
00
16
90
64
65
0E
21
05
00
89
2E
41
0D
86
0F
27
07
8B
0B
2A
29
7C
01
0D
03
04
00
05
49
3C
08
10
41
44
00
96
0B
45
12
47
09
10
08
2C
04
6A
00
47
23
69
01
85
00
3F
08
89
2B
CF
04
02
12
AF
32
01
22
C3
0C
0F
AF
3C
32
01
22
AF
02
CD
44
0F
02
CD
44
0F
02
CD
44
0F
21
00
22
86
86
86
86
86
6F
26
00
3A
01
22
1E
00
BB
C2
33
0F
11
2D
11
C3
36
0F
11
FF
11
19
16
05
7E
02
23
CD
44
0F
15
C2
39
0F
C9
E5
21
20
00
09
44
4D
E1
C9
D1
1A
47
13
1A
4F
13
1A
13
D5
16
FF
BA
CA
76
0F
16
30
BA
C2
6C
0F
21
00
01
09
44
4D
C3
72
0F
32
00
22
CD
0C
0F
D1
C3
54
0F
E1
E9
3A
02
22
E6
0F
32
00
22
01
1E
3D
CD
00
0F
3A
02
22
E6
F0
0F
0F
0F
0F
32
00
22
01
1E
3C
CD
00
0F
C9
DB
01
E6
01
CA
BA
0F
3A
03
22
47
AF
B8
C2
B9
0F
3A
02
22
3C
27
32
02
22
CD
78
0F
AF
3C
32
03
22
C9
AF
32
03
22
C9
3A
0E
20
E6
0F
32
00
22
01
1C
37
CD
00
0F
01
03
2C
CD
07
0F
3A
0E
20
E6
F0
0F
0F
0F
0F
32
00
22
01
1C
36
CD
00
0F
01
03
2D
CD
07
0F
3A
0F
20
FE
00
CA
F8
0F
3E
01
C3
FA
0F
3E
24
32
00
22
01
1C
35
