verilog work "ipcore_dir/pll.v"
vhdl work "../../src/base/base_pack.vhd"
vhdl work "../../CtrlModule/ZPUFlex/RTL/zpupkg.vhd"
vhdl work "../../CtrlModule/dpram2.vhd"
vhdl work "../../CtrlModule/CtrlModule/CharROM/CharROM_ROM.vhd"
vhdl work "../../src/intv/rom_pack.vhd"
vhdl work "../../src/intv/cp1610_pack.vhd"
vhdl work "../../CtrlModule/ZPUFlex/RTL/zpu_core_flex.vhd"
vhdl work "../../CtrlModule/CtrlModule/RTL/spi.vhd"
vhdl work "../../CtrlModule/CtrlModule/RTL/OnScreenDisplay.vhd"
vhdl work "../../CtrlModule/CtrlModule/RTL/io_ps2_com.vhd"
vhdl work "../../CtrlModule/CtrlModule/RTL/interrupt_controller.vhd"
vhdl work "../../CtrlModule/CtrlModule/Firmware/CtrlROM_ROM.vhd"
verilog work "../../common/scandoubler.v"
vhdl work "../../common/membrane.vhd"
vhdl work "../../src/intv/stic.vhd"
vhdl work "../../src/intv/snd.vhd"
vhdl work "../../src/intv/ivoice.vhd"
vhdl work "../../src/intv/cp1610.vhd"
vhdl work "../../src/base/ovo.vhd"
vhdl work "../../CtrlModule/CtrlModule/RTL/OSD_Overlay.vhd"
vhdl work "../../CtrlModule/CtrlModule/RTL/CtrlModule.vhd"
verilog work "../../common/mist_video.v"
vhdl work "../../common/membrane_joystick.vhd"
vhdl work "../../common/kbd_joystick.vhd"
vhdl work "../../common/io_ps2_keyboard.vhd"
vhdl work "../../common/debounce.vhd"
vhdl work "../../common/dac.vhd"
vhdl work "../../src/intv/intv_zxnext.vhd"
