6BF
0
C5
A00
999
0
0
0
0
0
0
0
0
0
0
0
841
FA7
E74
C66
734
FD8
E72
EAC
EBA
C73
FA9
DCC
A31
F50
0
0
66C
EEE
F70
88F
FFF
44D
0
F80
CCC
B20
66D
0
0
0
0
0
867
988
A99
866
BAA
FFF
CBB
977
0
EDD
BBB
756
645
0
0
0
FC6
EEE
B35
122
35C
9BC
0
0
0
0
0
0
0
0
0
0
333
222
EEE
DDD
FFF
666
555
444
999
0
CCC
BBB
AAA
111
888
0
AA9
222
EEE
DDD
FFF
EED
666
555
999
777
CCC
BBB
AAA
888
0
0
900
CB1
541
F91
FFF
A85
FD1
A80
FA5
0
D00
E70
EC1
F00
860
0
401
CD2
E56
DD6
FFF
A93
101
FFB
661
999
997
934
220
F55
C66
655
0
0
0
0
0
0
0
0
0
0
0
0
0
0
0
0
0
0
0
0
0
0
0
0
0
0
0
0
0
0
0
0
0
0
0
0
0
0
0
0
0
0
0
0
0
0
0
0
0
0
0
0
0
0
0
0
0
0
0
0
0
0
0
0
0
0
0
0
0
0
0
0
0
0
0
0
0
0
0
0
0
0
0
0
0
0
0
0
0
0
0
0
0
0
0
0
0
0
0
0
0
0
0
0
0
0
0
0
0
0
0
0
