:100000007ECFDE1CC09100B10059B4A3544AE594E0
:1000100052719E944D9B7E8E5270A4717F38AD9725
:100020004E4AA17B614A988B444C9C6B6349A06605
:1000300001024F658075534D8704016C58587277E3
:100040004E527B76564B6B765A466E74010456447C
:100050006585520A05127F874B0B0C0D7A894A0A77
:100060000C0E77874C0A0C0E590216880D043609BF
:100070000F0F5304141003720C081E011306100610
:100080005B04120A0B710C0834060F095705110A9C
:100090000C70080D3208100816093305100B0C708F
:1000A000070E310811071A013405110A0D70060EEA
:1000B000320711065105120A0C7104100E081A05B8
:1000C00011074F05100B06030107016404100D050D
:1000D0001F0214054E05100B060E016602100D05D9
:1000E00039044D05100A070E016602100B0837058A
:1000F0004B050F0B060E026502110B0837054A056A
:100100000F0B060E027A0C0738044904100B060E7A
:10011000027A0C078604100B060E027A0B0984047F
:10012000100B060F015F01170B0883051009080F5C
:10013000015F01160C0783050F08090F025E011607
:100140000C08820410070A0F015E02160C078204D5
:1001500010060A0F025D02160B081304670510064D
:100160000B0E025E01160C07130468040701040657
:100170000B0F025D02160C071304670510060A0E2A
:10018000035D02160C0713046704070104060B0F36
:10019000025D0215080C12056604070104060C0E28
:1001A000025D0215080C12056504070105050C0E19
:1001B000035C02110C0B130413044B040702040626
:1001C0000B0F025C02120B0C140213044A04070109
:1001D00005050C0E025E01110B0C2E044A030701EB
:1001E00005050C0E035C02100C0B7F0406020504CF
:1001F0000D0E025E01110B0A2F034A0406030405CB
:100200000C0E03720B0A2F034A05060204050C0F9D
:100210000275080A30014C03070205050B0F027432
:10022000090B2E034C04070204050C0E0275080C82
:100230002E014D04080104060B0F0276070C150170
:100240006704070204060B0E0306016E040E120477
:1002500013034E04080104060C0D02070153011894
:10026000030E110513034F05070204060D0B0306C9
:100270000253011702100703030511065204080177
:1002800004050E0C03050284070F0F065A0208032B
:1002900003050C0C050502670117060E1107130470
:1002A000120133010801190B0408019401050D0521
:1002B000170113016C06080106A4030C1108A6EC33
:1002C000AC0001A5F1BCE5B6DAC2F1C5F6C4E2DDC9
:1002D000EBD60014F2E4F9F80008EF001C0012005D
:1002E0000700000000000000000000000000A00760
:1002F00005040A070804070617010D040A04040B85
:100300000205050B0306030306010516040403108A
:100310000205050102040404200106030F0306027E
:100320000101010101070806060407060805060584
:10033000050B050406070A01050B19020908030548
:1003400009050A010A04030C060306190906020D31
:10035000101311140E3B010C4A595F7308110B2343
:1003600076090331567E584C5CAB4A454B44165EC9
:100370004434412F387A432A4125358A3632362B88
:100380003334184228310405332E29381304033B33
:1003900026342C342D301D4326352B322B241D4C76
:1003A00024352C2E2B251D4925332E213622194E7E
:1003B000233027283721184C222004082A25381AF0
:1003C0001C4C211C0A032A26311D2046211B0A042D
:1003D0002B242E201E45201A0C032C232C201947D9
:1003E000201A0D012D221F2D194521190D012D2037
:1003F0001F1E254720180E022D1E1D2425422117E1
:100400000E012E1D1D23234321170D022D1C1E221C
:10041000254020170E022D1B1F22243F20161001FD
:1004200019010F1A2020243E20162C030E1B1F1F1B
:10043000234020162B040E191F2022401F162C02C9
:100440000F1C201C22401F15401C201C02021A40B9
:100450001F153F1C21231B3E201606082C1E20259D
:100460001B3A20282B1E2824183721292B1F1F0157
:1004700005231835222E03031F0402130D02221B2D
:10048000133A213729080318201E044722372B0668
:1004900006181C11015A342834272001045634014F
:1004A00003233530215B3233392D2B04054F421B9A
:1004B0000104030443410B5C030506048533140562
:1004C0000A07090D0E1501122F2A7113371C2F3A36
:1004D000533B3C0F300F81692B2B342C6A25282885
:1004E0002A2429394E2636354237312B3AAF932FFD
:1004F000473098A593223422BB29192B1105920469
:1005000011120F074D180305170501040803081001
:100510000F03100206021605010617062A060A0432
:100520001F04130A100228040D0B0B060104071EFA
:100530000F0611030A050504050205040604090651
:100540000E0806050A03040305040A04070A050247
:1005500005020407060505020A030604090A060740
:10056000070A07041801050507040502070D06021E
:1005700003040C040F04060407040503060604051F
:1005800007050604050307050E0506030503070610
:1005900006030508090601050C0503020703050407
:1005A0000803060606030505060404050C050403F6
:1005B000050305040B03040209050E0408050603E0
:1005C00008040405060305040601040104040502E9
:1005D0000B0409060D020B050503050A06050407B1
:1005E000060405030607080D0706060305050603AE
:1005F00004050C05060507060603040407020504A6
:100600000E0404030706040405060804050806048E
:100610000505050504040602050609050706050487
:10062000070505040503020C050406050C0806056C
:100630000F0605020509040306040D010503040362
:1006400004040B0B0202040503040504010308065D
:100650000401080604010606050507010103050556
:1006600006030805050308080B050705060506032C
:10067000050511080506110505040606090505010D
:10068000070505060B02070E05050903040304030D
:100690000401040304030508060C0705050405020C
:1006A00004080903070606040405070502040703F6
:1006B0000A040502050304050201060404050503F6
:1006C000070705030A0404040501040104040C02DD
:1006D0000504070506040305050406050B040404C8
:1006E00007060504060506040705060605030506B4
:1006F00006030606040507050606030306040404AC
:10070000050304030502050C0A02020305080D0A8D
:100710000D050402060203040B050C030403050384
:1007200004040C0906040504050304030503070477
:10073000060703030502040203030404050A0D036C
:1007400005030B050B040504020305040905060156
:1007500005020503040205040A020A050D010D063F
:100760000C0A07030403050405050504050E03032D
:100770000C07020B04050315030603190405820484
:100780000404058D011F090306034D050C1C2203FB
:100790001E081266633D47070F5E5A4845794406B6
:1007A0000E31587C440F062D4204127F4410042E53
:1007B000440211834510032F4B0703864646499494
:1007C00047474798484546320A0F014848443E305B
:1007D0002A4B483843332E5046343C3D2B5B453240
:1007E0003C333467412F422C38733D313F2D367AEC
:1007F0003D323C2D36310A433931402D36321142DB
:1008000035343C2F343119443337333732331948B8
:100810002F3A31392D372049250502392F3B2C3904
:10082000214C26442E3A2D38254F29422F392E347B
:100830002B5329402F382F322E5A2B3D3038302F52
:10084000325E2C3C3036322B35662C3B2F3138282B
:10085000386F2B3A302A3E28387A2A2D0406302762
:1008600040252F91282B3F283F262F99292C080619
:100870002C2741232D34115D2A3E2B2941242DA8FC
:100880002B3039283E272D281F6D2D3A2E293B2944
:100890002D311B6E2E32352A3B28302923762E31FE
:1008A000362A382C2F2B1D7F2F2E3929372D2E2C11
:1008B0002A7B2D2C3B2934322E292F852B293F28AA
:1008C00032352F2B2D902B2A3F283333312D38945E
:1008D0002A2A3F273532302C33AE2F2D3929343296
:1008E000322F30C22F2C3C293532302F34D12F29D2
:1008F00041283435312F35D6312940272C3A31263D
:1009000030241DB8302645232A38312366DE2D25B4
:1009100045202D30380017011E0103171F331A5CC4
:1009200010692725D410421D245305D6E2092C183E
:100930000D010C005BD805090B22460514023A1D77
:10094000C000180943270D10085007EE00350B1D95
:10095000690300530051000018003F000087003C6D
:10096000F8A80C0CA8F8CC84CC84FC307C54C0C013
:10097000547C30FC84CC84CC18F8ACACF8187848A3
:1009800078CCFC30607CD4D47C6030FCCC78487867
:100990000820151520822080000080000000000043
:1009A00000000208050508200820404020800000C3
:1009B00000000000000201010208820850500820D7
:1009C00000000000000000000000000220825454DB
:1009D0008208800000000000802015952000008023
:1009E00020008020000000000000200805250800ED
:1009F0000020484020080000000000000802010913
:100A0000020000085250080200000000000002002E
:100A10000002000000825454820000008000008028
:100A200082201515200800800000802000000000B2
:100A30000000200805050802802040402008000032
:100A40000000000008020101020020085050088246
:100A50000000000000000200000000000882545462
:100A6000822000000000008000209515208020805A
:100A7000002080000000000000000008250508207C
:100A8000082040482000000000000000000209018A
:100A90000208020850520800000000000000000098
:100AA0000200000200825454820080000080000096
:100AB0000000000000000000000000000000000036
:100AC0000107000000000107000000000000000115
:100AD000200802000000010501010000142121216D
:100AE000E08014212121E181020202020202155458
:100AF00000000080205155755550551155515551E4
:100B000055115555515551559500000000000000F4
:100B100000000208204050D4505040004550505032
:100B20004100455050505150280808080808150544
:100B30002080000000000000000000000080808095
:100B4000E07800808080E078000000000000005025
:100B50000000000000000000000000000000000095
:100B60000107000000000107000000000001000074
:100B700020080200000001050101000014212121CC
:100B8000E08014212121E1810202020215540000BB
:100B90000000008020515575555055115551555143
:100BA0005511555551555155950000000000000054
:100BB00000000208204050D4515040004550515090
:100BC00040004550505050502808080808081505A6
:100BD0002080000000000078E08080800078E080C5
:100BE00080800000000000000000000000000050B5
:100BF00000000000000000070100000000070100E5
:100C000000000000000000000000000000000001E3
:100C100002080200000001B5E12120201481E12139
:100C200020201401010101010202020202021554F6
:100C300000000080205155755550551155515551A2
:100C400055115555515551559500000000000000B3
:100C500002000208204050D45050400045505050EF
:100C60004100455050505150280808081505000013
:100C70000080000000000000000000000080808074
:100C8000E07800808080E0780000000000500000E4
:100C9000060A102D0000060A102D0000060A102D6D
:100CA0000000182B15980D99060A1B35102D060A01
:100CB00000000000060A102D0000060A102D00009A
:100CC000060A102D0000182B15980D99060A1B35E1
:100CD000102D1E3500000000060A15980D99060A11
:100CE00015980D99060A14600C19060A14600C195F
:100CF000060A12270ACB060A12270ACB182B102D38
:100D00000A2F060A00000000060A102D0000060A3D
:100D1000102D0000060A102D0000182B14600C196D
:100D2000060A1835102D060A00000000060A102DCC
:100D30000000060A102D0000060A102D0000182BD6
:100D400014600C19060A1835102D1E35000000001D
:100D5000060A205B1460060A24511598060A205BD7
:100D60001460060A1CD21227060A1B35102D060A2B
:100D7000183518F4060A15980D99708898A8C8882F
:100D80007000002060202020207000007088083053
:100D90004080F8000070880830088870000010302B
:100DA00050F81010100000F88080F00808F00000E3
:100DB000708880F08888700000F88810102020204B
:100DC00000007088887088887000007088887808B3
:100DD00088700000205088F88888880000F0484813
:100DE000704848F00000708880808088700000F0B3
:100DF0004848484848F00000F88080F08080F800BB
:100E000000F88080F08080800000708880B888883A
:100E1000700000888888F88888880000F8202020E2
:100E20002020F8000038101010109060000088900A
:100E3000A0C0A090880000808080808080F00000AA
:100E400088D8A8A8888888000088C8C8A8989888E2
:100E50000000708888888888700000F08888F0809A
:100E60008080000070888888A890680000F08888DA
:100E7000F0A090880000708880700888700000F8EA
:100E8000A82020202020000088888888888870007A
:100E90000088888888505020000088888888A8A802
:100EA0005000008888502050888800008888502092
:100EB0002020200000F80810204080F800000000EA
:100EC000601070906800008080F0888888F00000D2
:100ED000000070888088700000080878888888780A
:100EE000000000007088F880700000205040E04052
:100EF000404000000000708888780888708080B0CA
:100F0000C888888800002000602020207000002011
:100F1000006020202020A040808090A0C0A09000F1
:100F2000006020202020207000000000D0A8A8A889
:100F3000A800000000B0C888888800000000708801
:100F400088887000000000B0C88888F080800000A9
:100F5000689888986808080000B0C8808080000001
:100F60000000708070087000004040E04040502059
:100F70000000000088888898680000000088888841
:100F800050200000000088A8A8A850000000008899
:100F90005020508800000000888888780808700079
:100FA00000F8102040F800000000000000000000E1
:100FB00000202020202000200000000000F8000079
:100FC00000000000000000002020000000002000C1
:100FD000002000000020204000000000000012104F
:100FE000CE03F00FB30FB40FB10FB286A5B7100048
:100FF0000F00A18D400A271DBDD2BECE0400DF9E8A
:10100000BDD4AE8ED2A1EC8127FEDDABA68097AD1C
:10101000BDD6FA20F186FEC608B7FF02B6FF0084EF
:10102000402602C610D7C5BDD2DECE0400BDD4AE68
:101030008ECFDE9F72865597711A508ED546BF01AE
:101040000D0FC7860497920FB60FC18634B7FF0104
:10105000B7FF218A08A78D2ECA8635B7FF033CEF5C
:1010600010CE03F00FC10FB10FB20FB90FB80FB709
:101070000FB60FC696C597A0CE1000DF9CCC1C0003
:10108000DD9ABDDB6DCE0400BDD4AE8ED5EFEC8114
:101090002710DDABA68097ADCC0400DD9EBDD6FA4F
:1010A00020EC8601BDDE0186FF97ADCECC90C62731
:1010B000D798BDD501251DECC427108ED5EFDC9A3D
:1010C000DD9EEC81DDAB3001BDD6F4BDD73F0A9883
:1010D00026E0205286FF97B5BDDB6D4F5FDDAFDDAB
:1010E000B1CE0400BDD4AECC0521DDABCC0400DD17
:1010F0009E86AA97AD8ED5E8BDD6FA96AFBDD6D757
:101100008642BDD67996AC8B0697AC96B0BDD6D745
:10111000CC5421DDAB8ED5E0BDD6FA9EB1BDD6CB89
:1011200086C097C020380FB5BDDB6D8E08349FC3D5
:10113000CE0400BDD4AE86AA97ADCC0413DDABCCF3
:101140000400DD9E8ED5C2BDD6FA9EB3BDD6CBCCF3
:101150005404DDAB8ED5CEBDD6FA86C097C0BDDBBC
:101160006D0FB60FB78631C641DDA20FA4BDD4BD49
:10117000BDDC560FBA8E0600CE0400ECC4EDC90CDF
:1011800000EDC918003342301F26F00FA10DB5271E
:101190001FC6130DC62602C627D798CECC90BDD742
:1011A0003F8E1200301F26FC0A9826F286FF97C653
:1011B000BDDA33BDD4A29792860F134A26FC86FF70
:1011C00097C1BDDF70BDDB1F03A12A03BDDE7ABD61
:1011D000DF68BDD935DCBE1027016996B894B52704
:1011E0002586AA97ADCC544BDDABDC9ADD9E9EB133
:1011F000BDD6CB0AB8270FCC544BDDABCC0400DDF9
:101200009E9EB1BDD6CB96B994B5273B86AA97AD25
:10121000CC0545DDABDC9ADD9E96AFBDD6D796AC4E
:101220008B0697AC96B0BDD6D70AB9271ACC054520
:10123000DDABCC0400DD9E96AFBDD6D796AC8B0659
:1012400097AC96B0BDD6D7BDDA330DBA27020ABA2D
:10125000BDD7D8BDD820BDD4A2979213DCA2DD8E15
:10126000BDDFCC1025008C0DB5271FAD9FA00081E0
:10127000031027FDEB810D1026FF471A50AD9FA0EC
:1012800000810D26F81CEF7ED1C2BDD5011025FED0
:10129000438E0800301F26FC9EC31027FDC27ED15E
:1012A000C20A01AA31366B206F72206D6F72652001
:1012B0006F66206D656D6F7279001E0D5569732024
:1012C0006E656564656420746F20706C61790032AE
:1012D0002AFF4D6567612242756700000000B7FF75
:1012E000C0B7FFC2B7FFC5B7FFC7B7FFC886FFB714
:1012F000FF22390FC1BDD7A70DB51027FD62DCB1A4
:101300001093B32502DDB3BDD77C86049792860E79
:101310009798CECB50969884012703CECBF0BDD4BE
:1013200081860A134A26FC0A9826E7CECAB0BDD4A5
:10133000818E012C9FC3BDD5011025FD979EC3262C
:10134000F57ED0600FC1BDDA33BDDA33BDDA338646
:10135000049792138E0600CE0400ECC1EDC90BFE7B
:10136000EDC917FE301F26F28602979886AA97AD20
:1013700086C09788DE9A33C901C58E05C5968894C4
:10138000AD978986439799C616A680885594882676
:10139000069689A8C4A7C433415A26ED300A334AB9
:1013A0000A9926E30488048826CABDD4A296AD8B88
:1013B0005597AD0A9826B9860497A5C62896A58B99
:1013C0000C81282502860497A597928606134A2643
:1013D000FC5A26E98604979213BDDB6DCE0400BD4E
:1013E000D4AE8601BDDE0104C096A04C812024024B
:1013F00097A0CE1000DF9EBDD4AE8ED65AEC81DD14
:10140000AB2709A68097ADBDD6FA20F18601979843
:101410008EC0009FA586068D4E8D5196988B0297A3
:10142000988159240ABDDBB103A1BDD52720E60F61
:1014300098CC285DDDAB86FF97AD863FBDD679861B
:101440002DBDD46786028D1FBDDBDD96988B02977C
:10145000988158240ABDDBE003A1BDD52720E5868D
:1014600064BDD4677ED0E7134A26FC399EA5C680AA
:101470006F825A26FBC640A689F3FFA7825A26F739
:10148000398E080086059799C6203410A6C0A78813
:101490001BA7843088205A26F3351030010A99267C
:1014A000E7393410DC9A9E9CDD9C9F9A359034106D
:1014B0008E06004F5FEDC1301F26FA35908E28084A
:1014C00096A09798BDDD52847C814024F78B11A7AC
:1014D0008860A784BDDD52847C815024F78B19A7D6
:1014E0008861A701EC8490A22A0140810A25D5D009
:1014F000A32A0150C10A25CC6F0230030A9826C4E2
:101500003986FFB7FF02F6FF00C401260597C21A0D
:101510000139867FB7FF02A68D29E5840826050FCD
:10152000C21A01391CFE398602B7FF20C6231F9854
:101530004A26FDB6FF208840B7FF205CC14125EE5A
:101540008602B7FF2039969291C7271697C744C6DF
:10155000058EFFC64424063001A7802002A7815AC9
:1015600026F296C194B5274896B64C97B6813C258D
:101570001C0FB6DCB12716860297B896B28B991964
:1015800097B28199260796B18B991997B196B74C66
:1015900097B7813C251A0FB7860297B996B08B0191
:1015A0001997B0816025090FB096AF8B011997AFDD
:1015B0009EC32704301F9FC3B6FF03B6FF02BDDDE5
:1015C000523B486967682053636F72652000202092
:1015D00020506C617920204D65676122427567005B
:1015E00053636F726524200054696D6524200007E1
:1015F0002AFF4D6567612242756700173C554279A5
:1016000000212155537465766520426A6F726B0024
:101610003118AA436F70797269676874203139385C
:1016200032003B1BAA44617461736F667420496E7B
:101630006323004B1E554C6963656E7365642074AB
:101640006F00550C5554616E647920436F72706F52
:10165000726174696F6E000000001B1E555765258E
:101660006C6C20476574636861002827AA4E657812
:10167000742054696D650000003440DE906FC9C06D
:1016800000CECD7AC6093D33CBDCAB9E9EBDDE5F7E
:101690008609A7E2A6C03416D788C606968843A452
:1016A0008468E424083402968894ADAAE0A78404F0
:1016B0008804882606300186C097885A26DE3516AB
:1016C0003088206AE426CD326135C086AA97AD34D1
:1016D0001035028D023502340244444444BDD679AB
:1016E0003502D6ACCB06D7AC840FBDD679D6ACCB01
:1016F00006D7AC390FAE03AE20020FAEA680847FB2
:10170000802025EF810624048B3E2016801025E3DF
:10171000810A250E800725DB812425068006813E6F
:1017200024D13410BDD679351096AC8B0697AC0D0C
:10173000AE27C996AD8B552402865597AD20BD3492
:10174000011A50ECC44456445644563406ECC1A326
:10175000E11F01ECC1DD80ECC1DD826FE4DC86D3EA
:1017600082DD8666E4DC84D380DD84A6E4464444DE
:10177000B8FF20B7FF20301F26E1358134011A5011
:10178000CEC0038E095D8602B7FF20A6C02708F6EB
:10179000FF20C8F0F7FF2021FE4A26FB301F26EB72
:1017A0008602B7FF203581860197A534011A50C6FD
:1017B0000296A54A1226FC86C2B7FF2096A5404A8B
:1017C0001226FC8602B7FF205A26E60CA526E08EDC
:1017D0004000301F26FC3581DCA28002C002BDDE45
:1017E000593384D788108EC960D6A486063D0DA1D2
:1017F0002A02CB1831A586069799A6A034404D2A17
:1018000006E6C4DA88E7C433C8204826F235409695
:10181000884444260486C0334197880A9926DB39D8
:10182000108E280896A09798ECA490A22A014081D7
:101830000B240BD0A32A0150C10B24028D073123A6
:101840000A9826E4393420ECA490A2D0A348589BEF
:10185000A2DBA3C0028002DD8EA62284018801C61D
:10186000483D0DA12703C30090CEC99033CB86120B
:10187000D68FC4033D33C5DC8EBDDE5986039799F0
:10188000D68F5454C41F108E28C831A5A6A4271E75
:101890003450C6069CA9240C9CA72508A6C4A4A461
:1018A000AA84A78433413088205A26E83550300175
:1018B000334631210A9926D435A096C2262886F7C8
:1018C000C401D7A5270286DFB7FF025FB6FF0084F9
:1018D0000827101A0179FF02C602B6FF0084082704
:1018E00002C680DBA539B6FF23340284F7B7FF2395
:1018F000B6FF203402C401D7A5C801585858340493
:10190000F6FF01C4F7EAE0F7FF015F8622B7FF2088
:101910007DFF002A0E86DFB7FF20C6027DFF002B69
:1019200002C6808634B7FF013502B7FF203502B703
:10193000FF23DBA5390DB5102700AADCA2BDDA24F0
:10194000240CDCA2BDDE5CC45553E484E784DCA235
:10195000BDDA12241DD6A4C801BDD8BA2B14D7A550
:10196000DCA2BDDE5C96A5BDDF42250696A597A448
:101970002009D6A4BDD8BA2B02D7A4DCA2BDDA12A6
:10198000240CDCA2BDDE5C96A4BDDF42250F8EDEFA
:101990004FD6A4583ADCA2AB84EB01DDA2DCA2BD99
:1019A000DA242440DCA2BDDE5CE7E2A684A8E4A43D
:1019B000E02624860397BA96B5271C96B28B101999
:1019C00097B296B189001997B1860297B80FB6DE23
:1019D000BE2704335FDFBE1F9853E484340484AA17
:1019E000AAE0A78439D6A4588EDE4F3ADCA2AB8495
:1019F000EB01DD8EBDDFCC240896A4880297A420DD
:101A00000EDCA2BDDA122407108E00A2BDDEFD7E20
:101A1000D97B801184032609C019C40326031A0147
:101A2000391CFE398011840126F7C019C40126F142
:101A30001A01398E28C8C6206F805A26FB6F8D2662
:101A40007B8602B7FF20DCA28011C011BDDE5933B6
:101A500084D788BDDB10338820DFA7338404880453
:101A60008826063341C6C0D788862297990FBD0FB6
:101A7000A5DCA2830808BDDE5C3184D7898E28C826
:101A80001F30C41F30858611979834709688AAC479
:101A9000A7C433C8209688AA84A78496BA270A9632
:101AA000BD884097BD8B4097BC8EDB5C4FD689E4E8
:101AB000A4A68B94883402968843A4C4AAE4A7C43D
:101AC000968843A4C820AAE0A7C82033C84096BB84
:101AD0009BBC97BB24098640A88D2444B7FF2031C6
:101AE000A8200A9826C6DFA9D688EAC4E7C4DC88FD
:101AF000357003A52608545426043121C6C0444439
:101B0000260686C033413001DD880A991026FF760B
:101B1000C6249688AAC4A7C433C8205A26F439EC30
:101B20008D257F80122A014FC0163406BDDE591F55
:101B300013350697A5BDDE5C862697999BA5816027
:101B40002506866090A59799C60CA680A7C05A2640
:101B5000F930881433C8140A9926ED390055AAFFC4
:101B600055FFFFFFAAFFFFFFFFFFFFFF5596928182
:101B70001C27035F8D07861C97921339AA8E1C00C1
:101B80001F03ECC1ED818C280025F739FFFFFFFF13
:101B9000FFFFFFFFFFFFFFFFFFFFFFFF55CEC9EA7B
:101BA0000DA12703CECA7A9698C6203D8B1C1F0133
:101BB000398DEA86069799C610D7A5E646A6C0EDE8
:101BC000810AA526FA0A9926EE9FA539FFFFFFFF95
:101BD000FFFFFFFFFFFFFFFFFFFFFFFFAAC6FF861C
:101BE0005FD7888DB830881786023412C60696886B
:101BF00043A4C034029688A489F400AAE0A78430E4
:101C000088205A26E9351230014A26DE39FFFFFFC7
:101C1000FFFFFFFFFFFFFFFFFFFFFFFFFF3406C4D3
:101C2000038EDE76E685C455D788E6618E05C054FE
:101C3000543AC6439688AA84A7843088205A26F44A
:101C40003586340686203DC304061F01CC5514A7F3
:101C5000805A26FB3586CE06008E08006FC0301FE6
:101C600026FACECAB0BDD481C60E8DD65C8DD38681
:101C700010CB04BDDC424A26F85CBDDC42C616BD72
:101C8000DC1D5CBDDC1D8614CB04BDDC1D4A26F8C2
:101C90005CBDDC1DCE28E88E01406FC0301F26FAE7
:101CA000732992CEDE4F108E2A28109F8ACC080A04
:101CB000DD8EECC4BDDD636384ECC1BDDD83DC95EA
:101CC000EDA1ECC426EC109F8C9E8A9C8C10270002
:101CD000FAEC81DD8E9F8A86FF9797DC8EBDDD6FE3
:101CE00086FFA7840F88CEDE4FECC12719BDDD63C8
:101CF00025F7A68426F3D6885CD788588E27FE3A27
:101D0000EC5EED8420E39688272ECE28004A270C2F
:101D1000BDDD528403918824F74833C6ECC4DD93BB
:101D2000BDDD830F970A882708DC8E9E8CED819F8E
:101D30008CDC95DD8E7EDCDB0D972613DC93BDDD20
:101D400063250CBDDD5291C02405DC93BDDD837E8F
:101D5000DCC9DC90C30015841FDD90C3A0003406ED
:101D6000A6F139DB8FC11424179B8E811024113406
:101D7000046FE2C6143DE3E18E28E8308B1CFE3987
:101D80001A01399B8EDB8FDD95D18F261C918E2514
:101D900002968E48483404C6203DC306661F01E6FD
:101DA000E03AA6848403A784392502D68F484834B4
:101DB00004C6203DC306061F01E6E03AC603A6841A
:101DC00084FCA7843088205A26F4398E0626861093
:101DD00097985FA6858A30A7855CC11425F5308960
:101DE00000800A9826ECCC013FED8D22D18E0A307E
:101DF00086CFA484A78486FF97A58D058604979235
:101E000039C6203DD7A5863097988E21E0338820AB
:101E10000DA52B288E1C00CE27E02020C620345094
:101E2000A689E800A780A6C9E800A7C05A26F13510
:101E30005096A530864033C60A9827C43450CCFF4C
:101E4000202B00A780A7C05A26F935501320CDFFBC
:101E50000000FF0100000100009E9A108E04003473
:101E600004C6203D308BE6E454543AE6E0C4031047
:101E70008EDE76E6A539C0300C0396A09798108EBA
:101E80002808BDDEB68EDE4FE622583AECA4AB84BD
:101E9000EB01EDA4BDDA242416ECA43420BDDE5CF5
:101EA00035201F988455A484260553E484E78431A3
:101EB000230A9826CD39ECA4BDDA2424F8CEDE4FCF
:101EC0000F880F99ECC14858ABA4EB213420BDDE3C
:101ED0005C35203404E684C8AAE4E0260CD6888E5B
:101EE00028003A9699A7840C8896994C9799810472
:101EF00025D20D882629ECA4BDDA1224B8ECA4342E
:101F000020BDDE5C3520CE28000F884F34128D3284
:101F100035122506D688A7C00C884C810425ED967D
:101F200088CE28004A2716BDDD528403918824F705
:101F3000CE280033C6A6C4A822810227EAA6C4A7D9
:101F400022398501270F85022602301FE684C4014D
:101F500027131A013930884085022603308880E62D
:101F600084C41026ED1CFE39C6FF108E2808200DF3
:101F70005F108E28080DA12A04108E2868D7889635
:101F8000A09798E621C4038EDE76E6853404A6A4E5
:101F9000C6203D34064FE6215454E3E18E04003060
:101FA0008BD39A1F03A6E4948843A484E6E034020A
:101FB000C455D488EAE0E7C496A12A099688260584
:101FC000ECA8A0EDA431230A9826B8398E280896EB
:101FD000A09798EC84908E2A014081022409D08F2A
:101FE0002A0150C102250930030A9826E61CFE3951
:101FF0001A0139FFFFFFFFFFFFFFFFFFFFFFFFFF9A
:00000001FF
