
3A
1D
20
FE
48
D0
21
5C
20
7E
A7
C0
36
01
21
06
25
06
0D
CD
34
0A
21
06
3D
06
0D
C3
34
0A
3A
5D
20
A7
C2
30
48
00
00
00
3E
01
CD
D5
05
C3
8B
0D
E1
21
5D
20
C3
EF
08
CD
00
48
3A
16
20
A7
C8
CD
22
17
2E
AB
7E
FE
05
D2
66
48
FE
03
D2
6F
48
FE
01
D2
D1
4B
2E
8D
7E
FE
07
D8
2E
AA
7E
FE
04
D8
21
3E
20
36
01
C9
2E
8D
7E
FE
04
D8
C3
60
48
2E
8D
7E
FE
05
D8
C3
60
48
00
00
00
CD
37
48
3A
3E
20
A7
C8
CD
22
17
2E
AB
7E
FE
06
D2
B6
48
FE
05
CA
BB
48
FE
04
CA
C0
48
06
58
3A
1D
20
B8
D2
AC
48
21
3F
20
36
01
21
29
20
36
00
C9
21
40
20
7E
A7
C0
2B
36
00
C9
06
88
C3
9A
48
06
78
C3
9A
48
06
68
C3
9A
48
DB
02
E6
03
21
AC
21
F5
86
77
F1
21
AC
22
86
77
C9
00
00
00
00
00
3A
5C
20
A7
C0
3A
9C
20
E6
10
CA
0E
48
C3
30
04
3A
3F
20
A7
C2
00
40
C9
3A
EF
20
A7
C8
3A
C4
20
C3
03
49
00
00
C3
F3
48
B0
32
C4
20
D3
03
C9
3A
C4
20
A0
32
C4
20
D3
03
C9
06
24
C3
00
49
06
20
C3
0A
49
CD
E6
1D
06
28
C3
00
49
06
F7
CD
0A
49
C3
18
0D
3A
C5
20
B0
32
C5
20
D3
05
C9
3A
C5
20
A0
32
C5
20
D3
05
C9
06
04
CD
2E
49
3E
05
CD
D5
05
06
FB
C3
38
49
3A
16
20
A7
C8
3A
00
20
A7
CA
62
49
06
22
C3
00
49
06
FD
C3
0A
49
CA
74
49
36
00
06
21
CD
00
49
C3
20
10
06
FE
CD
0A
49
C9
06
01
CD
00
49
C3
48
10
06
FE
C3
0A
49
3A
16
20
A7
C2
1F
4C
3A
9C
20
E6
04
C2
1F
4C
3A
1D
20
FE
30
C3
A3
49
06
EF
C3
38
49
DA
9E
49
06
10
C3
2E
49
3A
A0
20
A7
C2
B7
49
06
FC
C3
38
49
3A
9C
20
E6
08
CA
CE
49
06
01
CD
2E
49
21
9B
20
34
E6
01
C0
C3
B2
49
06
02
CD
2E
49
21
9B
20
34
E6
01
C8
C3
B2
49
CD
82
49
C3
48
10
3A
EE
20
A7
C0
21
1C
39
06
28
C3
EB
09
00
00
00
00
00
CD
22
17
2E
AB
7E
A7
21
05
00
C8
FE
01
21
10
00
C8
FE
02
21
15
00
C8
21
30
00
C9
3A
C6
20
0F
DA
22
4A
21
12
2B
11
2D
4A
0E
0E
C3
2A
05
CD
17
4A
21
12
37
3E
1D
C3
36
05
0F
0B
00
18
1B
0F
0B
00
18
04
11
26
1E
27
21
0F
2C
11
0B
1A
06
08
CD
00
0A
11
5A
4A
0E
0B
CD
2A
05
CD
65
4A
21
0F
2E
CD
28
05
C3
CB
05
28
1B
1B
1C
1B
0F
0E
08
0D
13
12
CD
22
17
2E
AB
7E
A7
11
80
4A
C8
FE
01
11
82
4A
C8
FE
02
11
84
4A
C8
11
86
4A
C9
1B
21
1D
1C
1D
21
1F
1C
CD
CB
05
21
C6
20
C9
00
00
00
00
00
00
00
00
21
10
28
D3
06
C9
06
20
CD
38
49
C3
7D
1D
3A
EE
20
A7
C2
3C
4C
CD
22
17
C3
6A
03
21
C6
20
7E
0F
DA
E5
4A
36
22
CD
22
17
2E
AC
35
C2
28
4B
CD
58
4B
21
0F
39
3E
1E
CD
36
05
CD
B6
02
CD
88
4A
36
21
CD
22
17
2E
AC
7E
A7
CA
B3
04
C3
8B
4B
CD
22
17
2E
AC
35
C2
0E
4B
CD
58
4B
CD
B6
02
CD
CB
05
21
C6
20
36
22
CD
22
17
2E
AC
7E
A7
CA
B3
04
21
C6
20
36
22
C3
8B
4B
CD
42
4B
21
C6
20
36
22
CD
22
17
2E
AC
7E
A7
C2
8B
4B
21
C6
20
36
21
C3
8B
4B
CD
42
4B
21
C6
20
36
21
CD
22
17
2E
AC
7E
A7
C2
8B
4B
21
C6
20
36
22
C3
E1
00
7E
3D
21
01
27
CA
50
4B
24
24
3D
C2
4A
0B
06
10
CD
34
0A
C3
CB
05
21
0F
28
11
63
4B
0E
13
C3
B3
05
06
00
0C
04
1B
0E
15
04
11
1B
0F
0B
00
18
04
11
26
1D
27
3A
C6
20
0F
DA
86
4B
06
20
21
C5
20
70
C3
0A
05
06
00
C3
7F
4B
CD
BD
0A
CD
76
4B
CD
10
4A
C3
B4
4B
06
00
CD
0A
49
00
00
00
21
C2
20
11
65
1B
06
09
CD
04
0B
21
00
00
22
E5
20
22
EE
20
C9
CD
3B
4A
C3
E1
00
21
E5
20
3A
C6
20
0F
D8
23
C9
00
00
00
00
00
00
7E
3D
C8
4F
C3
4F
02
2E
8D
7E
FE
06
D8
C3
60
48
00
CD
BA
4B
7E
A7
C8
06
30
CD
13
09
B8
D8
CD
22
17
2E
AC
34
CD
46
02
CD
BA
4B
36
00
06
10
CD
00
49
3E
20
CD
D5
05
06
EF
C3
0A
49
CD
DB
4B
C3
DB
48
AF
32
59
20
CD
97
4B
CD
A9
01
C3
82
4C
CD
66
1D
21
00
00
C9
21
3F
20
7E
A7
CA
9E
49
23
7E
A7
CA
9E
49
C3
A6
49
CD
84
03
C3
E1
00
CD
51
49
C3
00
4E
CD
22
17
2E
A0
7E
A7
CA
B2
4A
36
00
C3
67
4C
00
CD
BD
0A
CD
22
17
2E
A2
34
21
1B
26
0E
04
11
63
4C
CD
2A
05
C3
15
4E
05
14
04
0B
2E
AC
7E
3D
CA
B2
4A
CD
A4
03
C3
E1
4C
CD
A4
01
21
C2
20
7E
A7
C0
36
00
C3
AD
4D
21
DC
20
36
00
21
E3
20
36
00
C3
B3
04
00
00
00
00
00
00
00
00
00
00
00
00
00
00
00
00
00
00
00
00
00
CD
22
17
2E
B0
36
01
C9
CD
10
4A
CD
3B
4A
C3
CB
05
CD
22
17
2E
AE
4E
36
00
C3
DA
03
AF
32
E3
20
C9
00
00
00
00
00
00
CD
22
17
2E
A2
7E
A7
CA
DB
4C
21
19
20
C3
8E
0F
21
1B
20
36
FE
C9
CD
76
4B
C3
B2
4A
22
56
20
3E
01
32
5A
20
C9
3A
EF
20
A7
C8
C3
87
49
21
C6
20
36
21
C9
00
00
11
C0
4D
21
C0
21
06
06
CD
04
0B
F3
CD
11
4D
FB
C9
2A
C0
21
7E
A7
C8
23
4E
5F
07
DA
56
4D
E5
CD
2B
4D
E1
0D
C2
1E
4D
23
C3
14
4D
C5
D5
CD
69
4D
D1
C1
2A
C2
21
53
06
08
CD
2E
49
D3
06
2B
7C
A7
C8
15
C2
3D
4D
53
06
F7
CD
38
49
2B
7C
A7
C8
15
C2
4B
4D
C3
35
4D
E5
2A
C4
21
2B
7C
A7
C2
5A
4D
0D
C2
57
4D
E1
23
C3
14
4D
DB
01
21
EC
20
0F
DA
75
4D
36
00
C9
7E
A7
C0
36
FF
2B
7E
FE
09
C3
A8
4D
33
02
28
02
22
02
33
02
28
02
22
02
33
02
26
02
1E
02
33
02
26
02
1E
02
22
02
1B
02
16
02
22
02
1B
02
16
02
19
06
00
D0
34
C3
AC
0A
11
B3
4D
C3
03
4D
C6
4D
FF
0D
FF
50
11
6D
4F
C3
03
4D
00
81
4D
FF
0D
FF
50
19
01
1B
01
1E
01
22
01
26
01
28
01
2D
01
33
01
2D
01
28
01
26
01
22
01
1E
01
1B
01
19
03
00
00
00
00
00
00
00
00
00
00
00
00
00
00
00
00
00
00
00
00
00
00
00
00
00
00
00
00
3A
16
20
A7
C0
CD
41
0A
E6
10
C8
21
A4
21
34
7E
FE
02
D8
36
00
CD
22
17
2E
A2
7E
A7
C8
EB
21
39
4E
37
3E
99
CE
00
96
EB
86
27
77
21
1B
2B
CD
74
05
21
1B
2D
3E
1C
C3
36
05
01
C3
D7
4E
AF
BE
C2
57
4E
34
2A
A8
21
22
B8
20
21
AA
4E
22
B6
20
21
B4
20
36
18
C3
83
4E
2A
B6
20
EB
2A
B8
20
06
08
CD
C8
09
2A
B8
20
7D
FE
40
DA
E1
4E
00
00
21
B4
20
AF
BE
CA
7A
4E
35
CA
95
4E
23
BE
CA
83
4E
35
CA
A1
4E
2A
B6
20
EB
2A
B8
20
2B
2B
00
22
B8
20
06
08
C3
C8
09
23
36
10
21
B2
4E
22
B6
20
C3
86
4E
21
BA
4E
22
B6
20
C3
86
4E
00
C0
31
DF
FC
DF
31
C0
5D
5D
2A
3E
1C
3C
E4
0C
10
90
98
7B
3F
7B
88
86
CD
E6
4E
36
FF
CD
A9
01
7E
A7
D3
06
C2
CA
4E
CD
22
17
C3
9D
03
21
B2
20
AF
BE
C8
23
C3
3E
4E
AF
32
B2
20
C9
CD
37
06
21
B2
20
C9
CD
22
17
2E
A2
7E
A7
CA
20
10
CD
20
10
C3
F6
0F
00
00
00
3A
5A
20
A7
21
03
00
C4
1A
4F
3A
EF
20
A7
C8
22
F2
20
21
F1
20
36
01
C2
4D
05
AF
32
5A
20
21
05
00
C9
2A
1D
20
22
A8
21
C3
D4
02
21
B3
20
36
01
CD
A9
01
2B
36
01
7E
D3
06
A7
C2
36
4F
CD
22
17
19
04
1E
02
16
04
1E
02
22
03
1E
01
28
02
26
03
1E
03
19
03
12
06
00
00
00
04
22
01
1E
01
26
06
00
00
00
00
00
00
00
00
00
00
00
00
00
40
4F
FF
11
FF
50
CD
22
17
2E
A2
7E
A7
CA
DD
49
C3
7A
49
3A
16
20
A7
C8
2A
2D
20
3A
2C
20
A7
F2
93
4F
7C
C6
04
67
CD
2C
0A
AF
01
60
01
09
77
01
20
00
09
77
01
20
00
09
77
01
20
02
09
77
01
20
00
09
77
01
20
00
09
77
C9
3A
16
20
A7
C8
2A
1D
20
EB
2A
2D
20
7D
D6
0A
BB
D0
7C
C6
0C
BA
D0
C6
12
BA
D8
3E
01
32
18
20
C9
CD
22
17
2E
AB
7E
FE
02
D8
FE
06
D2
F3
4F
16
FC
21
74
20
72
21
80
20
72
21
8C
20
72
C9
16
FB
C3
E6
4F
00
00
00
00
00
00
00
00
