
00
00
00
00
00
00
00
00
00
00
00
00
00
00
00
00
00
00
00
00
00
00
00
00
00
00
00
00
00
00
00
00
00
00
00
00
00
00
00
00
00
00
00
00
00
00
00
00
00
00
00
00
00
00
00
00
00
00
00
00
00
00
00
00
00
00
00
00
00
00
00
00
00
00
00
00
00
00
00
00
00
00
00
00
00
00
00
00
00
00
00
00
00
00
00
00
00
00
00
00
00
00
00
00
00
00
00
00
00
00
00
00
00
00
00
00
00
00
00
00
00
00
00
00
00
00
00
00
00
00
00
00
00
00
00
00
00
00
00
00
00
00
00
00
00
00
00
00
00
00
00
00
00
00
00
00
00
00
00
00
00
00
00
00
00
00
00
00
00
00
00
00
00
00
00
00
00
00
00
00
00
00
00
00
00
00
00
00
00
00
00
00
00
00
00
00
00
00
00
00
00
00
00
00
00
00
00
00
00
00
00
00
00
00
00
00
00
00
00
00
00
00
00
00
00
00
00
00
00
00
00
00
00
00
00
00
00
00
00
00
00
00
00
00
00
00
00
00
00
00
00
00
00
00
00
00
00
00
00
00
00
00
00
00
00
00
00
00
00
00
00
00
00
00
00
00
00
00
00
00
00
00
00
00
00
00
00
00
00
00
00
00
00
00
00
00
00
00
00
00
00
00
00
00
00
00
00
00
00
00
00
00
00
00
00
00
00
00
00
00
00
00
00
00
00
00
00
00
00
00
00
00
00
00
00
00
00
00
00
00
00
00
00
00
00
00
00
00
00
00
00
00
00
00
00
00
00
00
00
00
00
00
00
00
00
00
00
00
00
00
00
00
00
00
00
00
00
00
00
00
00
00
00
00
00
00
00
00
00
00
00
00
00
00
00
00
00
00
00
00
00
00
00
00
00
00
00
00
00
00
00
00
00
00
00
00
00
00
00
00
00
00
00
00
00
00
00
00
00
00
00
00
00
00
00
00
00
00
00
00
00
00
00
00
00
00
00
00
00
00
00
00
00
00
00
00
00
00
00
00
00
00
00
00
00
00
00
00
00
00
00
00
00
00
00
00
00
00
00
00
00
00
00
00
00
00
00
00
00
00
00
00
00
00
00
00
00
00
00
00
00
00
00
00
00
00
00
00
00
00
00
00
00
00
00
00
00
00
00
00
00
00
00
00
00
00
00
00
00
00
00
00
00
00
00
00
00
00
00
00
00
00
00
00
00
00
00
00
00
00
00
00
00
00
00
00
00
00
00
00
00
00
00
00
00
00
00
00
00
00
00
00
00
00
00
00
00
00
00
00
00
00
00
00
00
00
00
00
00
00
00
00
00
00
00
00
00
00
00
00
00
00
00
00
00
00
00
00
00
00
00
00
00
00
00
00
00
00
00
00
00
00
00
00
00
00
00
00
00
00
00
00
00
00
00
00
00
00
00
00
00
00
00
00
00
00
00
00
00
00
00
00
00
00
00
00
00
00
00
00
00
00
00
00
00
00
00
00
00
00
00
00
00
00
00
00
00
00
00
00
00
00
00
00
00
00
00
00
00
00
00
00
00
00
00
00
00
00
00
00
00
00
00
00
00
00
00
00
00
00
00
00
00
00
00
00
00
00
00
00
00
00
00
00
00
00
00
00
00
00
00
00
00
00
00
00
00
00
00
00
00
00
00
00
00
00
00
00
00
00
00
00
00
00
00
00
00
00
00
00
00
00
00
00
00
00
00
00
00
00
00
00
00
00
00
00
00
00
00
00
00
00
00
00
00
00
00
00
00
00
00
00
00
00
00
00
00
00
00
00
00
00
00
00
00
00
00
00
00
00
00
00
00
00
00
00
00
00
00
00
00
00
00
00
00
00
00
00
00
00
00
00
00
00
00
00
00
00
00
00
00
00
00
00
00
00
00
00
00
00
00
00
00
00
00
00
00
00
00
00
00
00
00
00
00
00
00
00
00
00
00
00
00
00
00
00
00
00
00
00
00
00
00
00
00
00
00
00
00
00
00
00
00
00
00
00
00
00
00
00
00
00
00
00
00
00
00
00
00
00
00
00
00
00
00
00
00
00
00
00
00
00
00
00
00
00
00
00
00
00
00
00
00
00
00
00
00
00
00
00
00
00
00
00
00
00
00
00
00
00
00
00
00
00
00
00
00
00
00
00
00
00
00
00
00
00
00
00
00
00
00
00
00
00
00
00
00
00
00
00
00
00
00
00
00
00
00
00
00
00
00
00
00
00
00
00
00
00
00
00
00
00
00
00
00
00
00
00
00
00
00
00
00
00
00
00
00
00
00
00
00
00
00
00
00
CD
74
14
00
C5
E5
1A
D3
04
DB
03
B6
77
23
13
AF
D3
04
DB
03
B6
77
E1
01
20
00
09
C1
05
C2
05
14
C9
00
00
CD
74
14
C5
E5
AF
77
23
77
23
E1
01
20
00
09
C1
05
C2
27
14
C9
C5
1A
77
13
01
20
00
09
C1
05
C2
39
14
C9
00
00
00
00
00
00
00
00
00
00
00
CD
74
14
C5
E5
1A
D3
04
DB
03
2F
A6
77
23
13
AF
D3
04
DB
03
2F
A6
77
E1
01
20
00
09
C1
05
C2
55
14
C9
7D
E6
07
D3
02
C3
47
1A
C5
E5
7E
12
13
23
0D
C2
7E
14
E1
01
20
00
09
C1
05
C2
7C
14
C9
CD
74
14
AF
32
61
20
C5
E5
1A
D3
04
DB
03
F5
A6
CA
A9
14
3E
01
32
61
20
F1
B6
77
23
13
AF
D3
04
DB
03
F5
A6
CA
BD
14
3E
01
32
61
20
F1
B6
77
E1
01
20
00
09
C1
05
C2
98
14
C9
AF
C5
77
01
20
00
09
C1
05
C2
CC
14
C9
3A
25
20
FE
05
C8
FE
02
C0
3A
29
20
FE
D8
47
D2
30
15
3A
02
20
A7
C8
78
FE
CE
D2
79
15
C6
06
47
3A
09
20
FE
90
D2
04
15
B8
D2
30
15
68
CD
62
15
3A
2A
20
67
CD
6F
15
22
64
20
3E
05
32
25
20
CD
81
15
7E
A7
CA
30
15
36
00
CD
5F
0A
CD
3B
1A
CD
D3
15
3E
10
32
03
20
C9
3E
03
32
25
20
C3
4A
15
21
03
20
35
C0
2A
64
20
06
10
CD
24
14
3E
04
32
25
20
AF
32
02
20
06
F7
C3
DC
19
00
0E
00
BC
D4
90
15
BC
D0
C6
10
0C
C3
5A
15
3A
09
20
65
CD
54
15
41
05
DE
10
6F
C9
3A
0A
20
CD
54
15
DE
10
67
C9
3E
01
32
85
20
C3
45
15
78
07
07
07
80
80
80
81
3D
6F
3A
67
20
67
C9
0C
C6
10
FA
90
15
C9
3A
0D
20
A7
C2
B7
15
21
A4
3E
CD
C5
15
D0
06
FE
3E
01
32
0D
20
78
32
08
20
3A
0E
20
32
07
20
C9
21
24
25
CD
C5
15
D0
CD
F1
18
AF
C3
A9
15
06
17
7E
A7
C2
6B
16
23
05
C2
C7
15
C9
00
CD
74
14
E5
C5
E5
1A
D3
04
DB
03
77
23
13
AF
D3
04
DB
03
77
E1
01
20
00
09
C1
05
C2
D7
15
E1
C9
CD
11
16
01
00
37
7E
A7
CA
FF
15
0C
23
05
C2
F9
15
79
32
82
20
FE
01
C0
21
6B
20
36
01
C9
2E
00
3A
67
20
67
C9
3A
15
20
FE
FF
C0
21
10
20
7E
23
46
B0
C0
3A
25
20
A7
C0
3A
EF
20
A7
CA
52
16
3A
2D
20
A7
C2
48
16
CD
C0
17
E6
10
C8
3E
01
32
25
20
32
2D
20
C9
CD
C0
17
E6
10
C0
32
2D
20
C9
21
25
20
36
01
2A
ED
20
23
7D
FE
7E
DA
63
16
2E
74
22
ED
20
7E
32
1D
20
C9
37
C9
AF
CD
8B
1A
CD
10
19
36
00
CD
CA
09
23
11
F5
20
1A
BE
1B
2B
1A
CA
8B
16
D2
98
16
C3
8F
16
BE
D2
98
16
7E
12
13
23
7E
12
CD
50
19
3A
CE
20
A7
CA
C9
16
21
03
28
11
A6
1A
0E
14
CD
93
0A
25
25
06
1B
3A
67
20
0F
DA
B7
16
06
1C
78
CD
FF
08
CD
B1
0A
CD
E7
18
7E
A7
CA
C9
16
C3
ED
02
21
18
2D
11
A6
1A
0E
0A
CD
93
0A
CD
B6
0A
CD
D6
09
AF
32
EF
20
D3
05
CD
D1
19
C3
89
0B
31
00
24
FB
AF
32
15
20
CD
D8
14
06
04
CD
FA
18
CD
59
0A
C2
EE
16
CD
D7
19
21
01
27
CD
FA
19
AF
CD
8B
1A
06
FB
C3
6B
19
CD
CA
09
23
7E
11
B8
1C
21
A1
1A
0E
04
47
1A
B8
D2
27
17
23
13
0D
C2
1C
17
7E
32
CF
20
C9
3A
25
20
FE
00
C2
39
17
06
FD
C3
DC
19
06
02
C3
FA
18
00
00
21
9B
20
35
CC
6D
17
3A
68
20
A7
CA
6D
17
21
96
20
35
C0
21
98
20
7E
D3
05
3A
82
20
A7
CA
6D
17
2B
7E
2B
77
2B
36
01
3E
04
32
9B
20
C9
3A
98
20
E6
30
D3
05
C9
3A
95
20
A7
CA
AA
17
21
11
1A
11
21
1A
3A
82
20
BE
D2
8E
17
23
13
C3
85
17
1A
32
97
20
21
98
20
7E
E6
30
47
7E
E6
0F
07
FE
10
C2
A4
17
3E
01
B0
77
AF
32
95
20
21
99
20
35
C0
06
EF
C3
DC
19
06
EF
21
98
20
7E
A0
77
D3
05
C9
00
3A
67
20
0F
D2
CA
17
DB
01
C9
DB
02
C9
DB
02
E6
04
C8
3A
9A
20
A7
C0
31
00
24
06
04
CD
D6
09
05
C2
DC
17
3E
01
32
9A
20
CD
D7
19
FB
11
BC
1C
21
16
30
0E
04
CD
93
0A
CD
B1
0A
AF
32
9A
20
32
93
